One bed room,1,101,Already owned.
One bed room,1,102,No owner.
One bed room,1,103,No owner.
One bed room,1,104,No owner.
One bed room,1,105,No owner.
Two bed rooms,1,106,Already owned.
Two bed rooms,1,107,No owner.
Two bed rooms,1,108,No owner.
Two bed rooms,1,109,No owner.
Two bed rooms,1,110,No owner.
One bed room,2,201,No owner.
One bed room,2,202,No owner.
One bed room,2,203,No owner.
One bed room,2,204,No owner.
One bed room,2,205,No owner.
Two bed rooms,2,206,No owner.
Two bed rooms,2,207,No owner.
Two bed rooms,2,208,No owner.
Two bed rooms,2,209,No owner.
Two bed rooms,2,210,No owner.
One bed room,3,301,No owner.
One bed room,3,302,No owner.
One bed room,3,303,No owner.
One bed room,3,304,No owner.
One bed room,3,305,No owner.
Two bed rooms,3,306,No owner.
Two bed rooms,3,307,No owner.
Two bed rooms,3,308,No owner.
Two bed rooms,3,309,No owner.
Two bed rooms,3,310,No owner.
One bed room,4,401,No owner.
One bed room,4,402,No owner.
One bed room,4,403,No owner.
One bed room,4,404,No owner.
One bed room,4,405,No owner.
Two bed rooms,4,406,No owner.
Two bed rooms,4,407,No owner.
Two bed rooms,4,408,No owner.
Two bed rooms,4,409,No owner.
Two bed rooms,4,410,No owner.
One bed room,5,501,No owner.
One bed room,5,502,No owner.
One bed room,5,503,No owner.
One bed room,5,504,No owner.
One bed room,5,505,No owner.
Two bed rooms,5,506,No owner.
Two bed rooms,5,507,No owner.
Two bed rooms,5,508,No owner.
Two bed rooms,5,509,No owner.
Two bed rooms,5,510,No owner.
One bed room,6,601,No owner.
One bed room,6,602,No owner.
One bed room,6,603,No owner.
One bed room,6,604,No owner.
One bed room,6,605,No owner.
Two bed rooms,6,606,No owner.
Two bed rooms,6,607,No owner.
Two bed rooms,6,608,No owner.
Two bed rooms,6,609,No owner.
Two bed rooms,6,610,No owner.
One bed room,7,701,No owner.
One bed room,7,702,No owner.
One bed room,7,703,No owner.
One bed room,7,704,No owner.
One bed room,7,705,No owner.
Two bed rooms,7,706,No owner.
Two bed rooms,7,707,No owner.
Two bed rooms,7,708,No owner.
Two bed rooms,7,709,No owner.
Two bed rooms,7,710,No owner.
One bed room,8,801,No owner.
One bed room,8,802,No owner.
One bed room,8,803,No owner.
One bed room,8,804,No owner.
One bed room,8,805,No owner.
Two bed rooms,8,806,No owner.
Two bed rooms,8,807,No owner.
Two bed rooms,8,808,No owner.
Two bed rooms,8,809,No owner.
Two bed rooms,8,810,No owner.
One bed room,9,901,No owner.
One bed room,9,902,No owner.
One bed room,9,903,No owner.
One bed room,9,904,No owner.
One bed room,9,905,No owner.
Two bed rooms,9,906,No owner.
Two bed rooms,9,907,No owner.
Two bed rooms,9,908,No owner.
Two bed rooms,9,909,No owner.
Two bed rooms,9,910,No owner.
One bed room,10,1001,No owner.
One bed room,10,1002,No owner.
One bed room,10,1003,No owner.
One bed room,10,1004,No owner.
One bed room,10,1005,No owner.
Two bed rooms,10,1006,No owner.
Two bed rooms,10,1007,No owner.
Two bed rooms,10,1008,No owner.
Two bed rooms,10,1009,No owner.
Two bed rooms,10,1010,No owner.
